{
  "$schema": "http://schema.management.azure.com/schemas/2015-01-01/deploymentParameters.json#",
  "contentVersion": "1.0.0.0",
  "parameters": {
  
   "dnsNameforLBIP": {
      "value": "armvmlbdns"
    },
    "adminUsername": {
	
      "value" : "ayan"
    },
    "adminPassword": {        
      "reference": {
          "keyVault": {
            "id": "/subscriptions/f2d4faba-db82-455b-82e9-eda5c0bc703b/resourceGroups/devopsarm5/providers/Microsoft.KeyVault/vaults/ayan"
          },
          "secretName": "ayan"
        }        
    } ,
    "modulesUrl": {
            "value": "https://github.com/Azure/azure-quickstart-templates/raw/master/dsc-extension-iis-server-windows-vm/ContosoWebsite.ps1.zip"
        },
    "configurationFunction": {
            "value": "ContosoWebsite.ps1\\ContosoWebsite"
        }	
  }
}